{
  "project_info": {
    "project_number": "825785248641",
    "firebase_url": "https://memesapp-5acb1.firebaseio.com",
    "project_id": "memesapp-5acb1",
    "storage_bucket": "memesapp-5acb1.appspot.com"
  },
  "client": [
    {
      "client_info": {
        "mobilesdk_app_id": "1:825785248641:android:23d9adc2e794912b",
        "android_client_info": {
          "package_name": "com.example.marioponce.memesapp"
        }
      },
      "oauth_client": [
        {
          "client_id": "825785248641-mf8qhet4g428ipi118pmh8d6g4b2rugd.apps.googleusercontent.com",
          "client_type": 1,
          "android_info": {
            "package_name": "com.example.marioponce.memesapp",
            "certificate_hash": "9d4c7609730443fe22a0d3f79344c7536019fce8"
          }
        },
        {
          "client_id": "825785248641-rr3v8ielnum6r6vlvuru3essul276ra1.apps.googleusercontent.com",
          "client_type": 3
        }
      ],
      "api_key": [
        {
          "current_key": "AIzaSyC4Pj249SC2cbz-P_LL9Hf2UlRHHUbSrxI"
        }
      ],
      "services": {
        "analytics_service": {
          "status": 1
        },
        "appinvite_service": {
          "status": 2,
          "other_platform_oauth_client": [
            {
              "client_id": "825785248641-rr3v8ielnum6r6vlvuru3essul276ra1.apps.googleusercontent.com",
              "client_type": 3
            }
          ]
        },
        "ads_service": {
          "status": 2
        }
      }
    }
  ],
  "configuration_version": "1"
}